<svg xmlns="http://www.w3.org/2000/svg" width="22" height="22" viewBox="0 0 5.821 5.821">
	<rect ry=".265" rx=".265" y="-.001" height="5.821" width="5.821" fill="#555"/>
	<path d="M2.117 1.322h2.91M2.117 2.91h2.91m-2.91 1.587h2.91" fill="none" stroke="#ddd" stroke-width=".529"/>
	<circle r=".265" cy="1.322" cx="1.323" fill="#ff8000"/><circle r=".265" cy="2.91" cx="1.323" fill="#ff8000"/>
	<circle r=".265" cy="4.497" cx="1.323" fill="#ff8000"/>
</svg>