<svg xmlns="http://www.w3.org/2000/svg" width="22" height="22" viewBox="0 0 5.821 5.821">
	<rect ry=".265" rx=".265" y="-.001" height="5.821" width="5.821" fill="#555"/>
	<path d="M3.734 2.006c-.314-.417-.847-.655-1.323-.529s-.946.528-1.058 1.059c-.113.53.154 1.236.529 1.587" fill="none" stroke="#ff8000" stroke-width=".529" stroke-linecap="square" stroke-linejoin="bevel"/>
	<path d="M4.528 1.19L2.94 2.91h1.588z" fill="#ff8000"/>
</svg>