<svg xmlns="http://www.w3.org/2000/svg" width="22" height="22" viewBox="0 0 5.821 5.821">
	<rect ry=".265" rx=".265" y="-.001" height="5.821" width="5.821" fill="#555"/>
	<path d="M1.058 1.322h3.704M2.381 2.38h2.382M2.381 3.439h2.382M1.058 4.497h3.704" fill="none" stroke="#ddd" stroke-width=".529"/>
	<path d="M.53 2.91l1.322-.794v1.587z" fill="#ff8000"/>
</svg>