<svg xmlns="http://www.w3.org/2000/svg" width="20" height="16" viewBox="0 0 5.292 4.233">
	<path d="M1.323.265v3.704h2.646V1.323L2.91.265z" fill="#1d2021" stroke="#ddd" stroke-width=".529" stroke-linejoin="round"/>
	<path d="M2.646.265h.264v1.323h1.06" fill="#1d2021" stroke="#ddd" stroke-width=".529" stroke-linejoin="round"/>
</svg>