<svg xmlns="http://www.w3.org/2000/svg" width="22" height="22" viewBox="0 0 5.821 5.821">
	<path d="M3.734 2.007c-.314-.418-.847-.655-1.323-.529s-.946.528-1.058 1.058c-.113.531.154 1.237.529 1.588" fill="none" stroke="#66a8c7" stroke-width=".529" stroke-linecap="square" stroke-linejoin="bevel"/>
	<path d="M4.528 1.19L2.94 2.91h1.588z" fill="#66a8c7"/>
</svg>