%!PS-Adobe-3.0 EPSF-3.0
%%Creator: cairo 1.15.12 (http://cairographics.org)
%%CreationDate: Sun Sep 29 05:56:51 2019
%%Pages: 1
%%DocumentData: Clean7Bit
%%LanguageLevel: 2
%%BoundingBox: 0 0 242 243
%%EndComments
%%BeginProlog
50 dict begin
/q { gsave } bind def
/Q { grestore } bind def
/cm { 6 array astore concat } bind def
/w { setlinewidth } bind def
/J { setlinecap } bind def
/j { setlinejoin } bind def
/M { setmiterlimit } bind def
/d { setdash } bind def
/m { moveto } bind def
/l { lineto } bind def
/c { curveto } bind def
/h { closepath } bind def
/re { exch dup neg 3 1 roll 5 3 roll moveto 0 rlineto
      0 exch rlineto 0 rlineto closepath } bind def
/S { stroke } bind def
/f { fill } bind def
/f* { eofill } bind def
/n { newpath } bind def
/W { clip } bind def
/W* { eoclip } bind def
/BT { } bind def
/ET { } bind def
/BDC { mark 3 1 roll /BDC pdfmark } bind def
/EMC { mark /EMC pdfmark } bind def
/cairo_store_point { /cairo_point_y exch def /cairo_point_x exch def } def
/Tj { show currentpoint cairo_store_point } bind def
/TJ {
  {
    dup
    type /stringtype eq
    { show } { -0.001 mul 0 cairo_font_matrix dtransform rmoveto } ifelse
  } forall
  currentpoint cairo_store_point
} bind def
/cairo_selectfont { cairo_font_matrix aload pop pop pop 0 0 6 array astore
    cairo_font exch selectfont cairo_point_x cairo_point_y moveto } bind def
/Tf { pop /cairo_font exch def /cairo_font_matrix where
      { pop cairo_selectfont } if } bind def
/Td { matrix translate cairo_font_matrix matrix concatmatrix dup
      /cairo_font_matrix exch def dup 4 get exch 5 get cairo_store_point
      /cairo_font where { pop cairo_selectfont } if } bind def
/Tm { 2 copy 8 2 roll 6 array astore /cairo_font_matrix exch def
      cairo_store_point /cairo_font where { pop cairo_selectfont } if } bind def
/g { setgray } bind def
/rg { setrgbcolor } bind def
/d1 { setcachedevice } bind def
/cairo_data_source {
  CairoDataIndex CairoData length lt
    { CairoData CairoDataIndex get /CairoDataIndex CairoDataIndex 1 add def }
    { () } ifelse
} def
/cairo_flush_ascii85_file { cairo_ascii85_file status { cairo_ascii85_file flushfile } if } def
/cairo_image { image cairo_flush_ascii85_file } def
/cairo_imagemask { imagemask cairo_flush_ascii85_file } def
%%EndProlog
%%BeginSetup
%%EndSetup
%%Page: 1 1
%%BeginPageSetup
%%PageBoundingBox: 0 0 242 243
%%EndPageSetup
q 0 0 242 243 rectclip
1 0 0 -1 0 243 cm q
0 g
0 121.5 m 0 243 l 242 243 l 242 0 l 0 0 l h
59.102 198.102 m 68.398 201.199 73.5 208.699 72.801 218.199 c 72.5 222.801
 71.699 224.801 69.301 227.699 c 64.801 233.301 59.602 236 53 236 c 31.199
 235.898 23.898 209.199 43.102 199.602 c 48.801 196.801 53.699 196.301 59.102
 198.102 c h
130.699 199.398 m 149.699 208.301 142.898 235.898 121.699 236 c 106.398
 236 96.699 221.602 103.102 208.301 c 108 198.199 119.801 194.398 130.699
 199.398 c h
201.102 199.699 m 206.801 203 210.301 208.301 210.801 214.398 c 211.398
 221.602 210.602 224.199 206.801 228.5 c 200.301 236 190.102 238.199 181.301
 233.898 c 173.102 229.898 168.398 220.102 170.898 212.102 c 172.398 206.801
 177.398 201.199 182.5 198.801 c 187.398 196.5 196.398 196.898 201.102 199.699
 c h
201.102 199.699 m f
Q Q
showpage
%%Trailer
end
%%EOF
