<svg xmlns="http://www.w3.org/2000/svg" viewBox="0 0 5.821 5.821" height="22" width="22">
	<rect width="5.821" height="5.821" y="-.001" rx=".265" ry=".265" fill="#555"/>
	<path d="M1.058 1.322h3.704M2.381 2.38h2.382M2.381 3.439h2.382M1.058 4.497h3.704" fill="none" stroke="#ddd" stroke-width=".529"/>
	<path d="M2.117 2.91L.794 2.116v1.587z" fill="#ff8000"/>
</svg>